docopt==0.6.2
numpy==1.11.1
pandas==0.16.2
pybedtools==0.7.8
python_dateutil==2.5.3
pytz==2016.7
PyVCF==0.6.8
scipy==0.18.1
six==1.10.0
pysam==0.11.2.1
biopython==1.69
pyfaidx
wheel
pyYAML
psutil
virtualenv
sequenza-utils==3.0.0
bio_pype==1.0.7
